<svg width="18" height="14" viewBox="0 0 18 14" fill="none" xmlns="http://www.w3.org/2000/svg">
<path fill-rule="evenodd" clip-rule="evenodd" d="M7.00022 14L8.50814 12.4921L4.09619 8.06944L17.1113 8.06944V5.93055L4.09619 5.93055L8.50814 1.50792L7.00022 -1.19209e-07L0.000218458 7L7.00022 14Z" fill="black"/>
</svg>
