<svg width="1007" height="971" viewBox="0 0 1007 971" fill="none" xmlns="http://www.w3.org/2000/svg">
<path d="M0 636.254L11.3602 726.184C20.2812 797.041 53.0402 864.018 105.518 918.693L248.151 1008.12L312.162 1017L647.99 919.074L926.896 687.322L1007 391.154L1002.15 159.846L935.222 46.0753L784.045 1.65008L662.433 0C491.198 46.0922 335.964 128.88 210.94 240.785L110.325 330.947C56.3636 427.379 19.181 530.277 0 636.254H0Z" fill="#59BEFC"/>
</svg>
